Producto,Cantidad,Fecha,Hora
Shoyu ramen,1,2024-08-29,19:10:18
Takoyaki,1,2024-08-29,19:10:18
Hot dog coreano,1,2024-08-29,18:52:10
Takoyaki,1,2024-08-29,18:52:10
onigiri empanizado,1,2024-08-29,18:52:10
Takoyaki,1,2024-08-29,18:39:58
Shoyu ramen,1,2024-08-29,17:41:28
Takoyaki,1,2024-08-29,17:41:29
Takoyaki,1,2024-08-29,17:38:52
Hot dog coreano,1,2024-08-29,17:33:17
Hot dog coreano,1,2024-08-29,17:33:17
Hot dog coreano,1,2024-08-29,17:34:11
Hot dog coreano,1,2024-08-29,17:35:24
Hot dog coreano,1,2024-08-29,17:31:47
Hot dog coreano,1,2024-08-29,16:40:19
Hot dog coreano,1,2024-08-29,16:40:19
Hot dog coreano,1,2024-08-29,16:27:56
Shoyu ramen,1,2024-08-29,14:59:11
Takoyaki,1,2024-08-29,14:59:11
Miso ramen,1,2024-08-29,13:37:17
Shoyu ramen,1,2024-08-29,13:35:49
ramen tonkotsu,1,2024-08-29,13:30:26
onigiri empanizado,1,2024-08-29,13:24:58
Hot dog coreano,1,2024-08-29,12:41:20
Hot dog coreano,1,2024-08-29,12:41:20
Takoyaki,1,2024-08-29,12:41:20
Hot dog coreano,1,2024-08-28,19:03:16
Hot dog coreano,1,2024-08-28,19:03:16
Miso ramen,1,2024-08-28,18:55:05
Shoyu ramen,1,2024-08-28,18:19:38
Takoyaki,1,2024-08-28,18:19:38
Miso ramen,1,2024-08-28,17:35:30
Takoyaki,1,2024-08-28,17:35:30
Takoyaki,1,2024-08-28,17:09:46
Hot dog coreano,1,2024-08-28,16:16:52
Hot dog coreano,1,2024-08-28,15:48:57
Shio ramen,1,2024-08-28,15:44:53
Miso ramen,1,2024-08-28,14:55:03
Shio ramen,1,2024-08-28,14:55:03
Hot dog coreano,1,2024-08-28,14:55:03
Hot dog coreano,1,2024-08-28,14:55:03
Takoyaki,1,2024-08-28,14:55:03
Takoyaki,1,2024-08-28,13:45:26
Shoyu ramen,1,2024-08-28,13:43:07
tonkatsu,1,2024-08-28,13:43:07
Hot dog coreano,1,2024-08-28,12:41:50
Hot dog coreano,1,2024-08-27,19:32:16
Hot dog coreano,1,2024-08-27,19:32:16
Miso ramen,1,2024-08-27,18:40:30
ramen tonkotsu,1,2024-08-27,18:37:53
Takoyaki,1,2024-08-27,18:37:53
Shoyu ramen,1,2024-08-27,18:11:37
Miso ramen,1,2024-08-27,18:11:37
Takoyaki,1,2024-08-27,18:11:37
Takoyaki,1,2024-08-27,17:35:51
Hot dog coreano,1,2024-08-27,16:26:29
Hot dog coreano,1,2024-08-27,16:26:29
onigiri empanizado,1,2024-08-27,16:26:29
Miso ramen,1,2024-08-27,15:49:16
Hot dog coreano,1,2024-08-27,15:49:16
Hot dog coreano,1,2024-08-27,15:49:16
Shio ramen,1,2024-08-27,15:30:50
onigiri empanizado,1,2024-08-27,15:30:50
Hot dog coreano,1,2024-08-27,15:30:50
Hot dog coreano,1,2024-08-27,14:31:48
Hot dog coreano,1,2024-08-27,14:31:48
Hot dog coreano,1,2024-08-27,13:40:04
onigiri empanizado,1,2024-08-27,13:40:04
Hot dog coreano,1,2024-08-27,12:10:16
Miso ramen,1,2024-08-26,19:51:55
Hot dog coreano,1,2024-08-26,19:51:55
Takoyaki,1,2024-08-26,18:56:39
ramen tonkotsu,1,2024-08-26,18:52:53
Hot dog coreano,1,2024-08-26,18:52:53
Hot dog coreano,1,2024-08-26,18:52:53
Shio ramen,1,2024-08-26,18:43:34
Hot dog coreano,1,2024-08-26,18:09:03
Hot dog coreano,1,2024-08-26,18:09:03
Miso ramen,1,2024-08-26,17:50:47
tonkatsu,1,2024-08-26,17:36:37
Shoyu ramen,1,2024-08-26,17:30:35
Hot dog coreano,1,2024-08-26,17:30:35
Hot dog coreano,1,2024-08-26,16:29:29
Takoyaki,1,2024-08-26,16:22:32
Hot dog coreano,1,2024-08-26,16:22:32
Hot dog coreano,1,2024-08-26,15:51:00
Hot dog coreano,1,2024-08-26,15:40:02
Shoyu ramen,1,2024-08-26,15:04:12
Shio ramen,1,2024-08-26,14:22:43
Miso ramen,1,2024-08-26,14:20:33
Shoyu ramen,1,2024-08-26,14:18:05
Takoyaki,1,2024-08-26,14:18:05
ramen tonkotsu,1,2024-08-26,14:16:55
Takoyaki,1,2024-08-26,14:16:55
Shio ramen,1,2024-08-26,14:16:55
Hot dog coreano,1,2024-08-26,14:11:41
Miso ramen,1,2024-08-26,14:03:57
Miso ramen,1,2024-08-22,19:29:23
Miso ramen,1,2024-08-22,19:29:23
Hot dog coreano,1,2024-08-22,19:21:19
Hot dog coreano,1,2024-08-22,18:45:40
Takoyaki,1,2024-08-22,18:31:43
Shio ramen,1,2024-08-22,18:20:30
Miso ramen,1,2024-08-22,18:20:30
Hot dog coreano,1,2024-08-22,18:15:38
Hot dog coreano,1,2024-08-22,17:56:01
Hot dog coreano,1,2024-08-22,17:34:46
Hot dog coreano,1,2024-08-22,17:34:47
Hot dog coreano,1,2024-08-22,16:49:20
Hot dog coreano,1,2024-08-22,16:49:20
Hot dog coreano,1,2024-08-22,16:49:20
Hot dog coreano,1,2024-08-22,16:49:20
Hot dog coreano,1,2024-08-22,16:49:20
Hot dog coreano,1,2024-08-22,16:49:20
Hot dog coreano,1,2024-08-22,16:45:16
Hot dog coreano,1,2024-08-22,16:37:57
Takoyaki,1,2024-08-22,16:27:33
Hot dog coreano,1,2024-08-22,16:27:33
Hot dog coreano,1,2024-08-22,16:03:41
onigiri empanizado,1,2024-08-22,16:02:32
Shio ramen,1,2024-08-22,16:02:32
Takoyaki,1,2024-08-22,16:02:32
Takoyaki,1,2024-08-22,15:26:32
tonkatsu,1,2024-08-22,15:23:00
Hot dog coreano,1,2024-08-22,15:12:26
Hot dog coreano,1,2024-08-22,14:38:12
Hot dog coreano,1,2024-08-22,14:38:12
Hot dog coreano,1,2024-08-22,14:38:12
Hot dog coreano,1,2024-08-22,14:38:13
Hot dog coreano,1,2024-08-22,14:32:31
Miso ramen,1,2024-08-22,14:09:42
Shoyu ramen,1,2024-08-22,13:59:16
Miso ramen,1,2024-08-22,13:57:13
Miso ramen,1,2024-08-22,13:57:13
Hot dog coreano,1,2024-08-22,13:44:17
Shoyu ramen,1,2024-08-22,13:20:53
Shoyu ramen,1,2024-08-22,13:20:53
Takoyaki,1,2024-08-22,13:20:53
Miso ramen,1,2024-08-21,19:55:53
Takoyaki,1,2024-08-21,19:55:53
Hot dog coreano,1,2024-08-21,19:46:48
Shoyu ramen,1,2024-08-21,19:36:10
Hot dog coreano,1,2024-08-21,19:18:38
Hot dog coreano,1,2024-08-21,19:16:47
Hot dog coreano,1,2024-08-21,19:16:47
Takoyaki,1,2024-08-21,19:10:46
Hot dog coreano,1,2024-08-21,19:00:59
Hot dog coreano,1,2024-08-21,19:00:59
ramen tonkotsu,1,2024-08-21,18:59:28
Takoyaki,1,2024-08-21,18:59:28
Miso ramen,1,2024-08-21,18:56:56
Hot dog coreano,1,2024-08-21,17:32:02
Hot dog coreano,1,2024-08-21,17:29:28
Miso ramen,1,2024-08-21,16:12:47
ramen tonkotsu,1,2024-08-21,16:12:47
Takoyaki,1,2024-08-21,16:12:47
Miso ramen,1,2024-08-21,14:54:11
Hot dog coreano,1,2024-08-21,14:40:17
Hot dog coreano,1,2024-08-21,14:28:14
Takoyaki,1,2024-08-21,13:34:13
ramen tonkotsu,2,2024-08-21,13:20:11
Hot dog coreano,1,2024-08-21,13:15:51
Hot dog coreano,1,2024-08-21,13:05:38
Hot dog coreano,1,2024-08-21,13:05:38
Hot dog coreano,1,2024-08-21,12:35:44
Hot dog coreano,1,2024-08-20,19:27:00
Takoyaki,1,2024-08-20,18:48:52
Miso ramen,1,2024-08-20,18:47:05
Takoyaki,1,2024-08-20,18:47:05
Shoyu ramen,1,2024-08-20,18:39:11
Shoyu ramen,1,2024-08-20,18:39:11
Shio ramen,1,2024-08-20,18:39:12
Takoyaki,1,2024-08-20,18:11:59
tonkatsu,1,2024-08-20,18:03:41
Miso ramen,1,2024-08-20,17:46:17
Miso ramen,1,2024-08-20,17:46:17
Hot dog coreano,1,2024-08-20,17:10:51
Hot dog coreano,1,2024-08-20,17:10:51
Hot dog coreano,1,2024-08-20,16:58:30
Hot dog coreano,1,2024-08-20,16:58:30
Shoyu ramen,1,2024-08-20,16:44:14
Miso ramen,1,2024-08-20,16:44:14
Shio ramen,1,2024-08-20,16:44:14
ramen tonkotsu,1,2024-08-20,16:44:14
tonkatsu,1,2024-08-20,16:44:14
Takoyaki,1,2024-08-20,16:44:14
Takoyaki,1,2024-08-20,16:44:14
Miso ramen,1,2024-08-20,16:19:15
Takoyaki,1,2024-08-20,15:43:16
Shoyu ramen,1,2024-08-20,15:39:37
Shio ramen,1,2024-08-20,15:39:37
Hot dog coreano,1,2024-08-20,15:24:10
Hot dog coreano,1,2024-08-20,15:24:11
Miso ramen,1,2024-08-20,13:31:09
Miso ramen,1,2024-08-20,13:31:09
Hot dog coreano,1,2024-08-20,13:31:09
Hot dog coreano,1,2024-08-20,13:31:09
Hot dog coreano,1,2024-08-20,13:17:32
Hot dog coreano,1,2024-08-20,13:17:32
onigiri empanizado,1,2024-08-20,13:17:32
ramen tonkotsu,1,2024-08-20,13:13:34
ramen tonkotsu,1,2024-08-20,13:04:41
Hot dog coreano,1,2024-08-19,19:11:05
Hot dog coreano,1,2024-08-19,19:07:36
Shio ramen,1,2024-08-19,18:57:22
Hot dog coreano,1,2024-08-19,18:44:24
Hot dog coreano,1,2024-08-19,18:21:54
Miso ramen,1,2024-08-19,18:06:00
Hot dog coreano,1,2024-08-19,17:46:48
Hot dog coreano,1,2024-08-19,17:46:48
Hot dog coreano,1,2024-08-19,17:46:48
Takoyaki,1,2024-08-19,17:46:48
Hot dog coreano,1,2024-08-19,17:20:50
Takoyaki,1,2024-08-19,17:16:50
Hot dog coreano,1,2024-08-19,17:12:55
Hot dog coreano,1,2024-08-19,17:12:55
Miso ramen,1,2024-08-19,16:46:34
Hot dog coreano,1,2024-08-19,15:50:16
tonkatsu,1,2024-08-19,15:48:41
Shoyu ramen,1,2024-08-19,15:48:41
Hot dog coreano,1,2024-08-19,15:38:52
Hot dog coreano,1,2024-08-19,15:38:52
Hot dog coreano,1,2024-08-19,15:38:52
ramen tonkotsu,2,2024-08-19,15:09:02
Hot dog coreano,1,2024-08-19,15:09:02
Hot dog coreano,1,2024-08-19,15:09:02
Takoyaki,1,2024-08-19,15:09:02
Takoyaki,1,2024-08-19,14:16:49
Hot dog coreano,1,2024-08-19,13:26:33
Hot dog coreano,1,2024-08-19,13:26:33
Miso ramen,1,2024-08-19,12:57:38
ramen tonkotsu,1,2024-08-15,19:25:17
Shoyu ramen,1,2024-08-15,19:25:17
Takoyaki,1,2024-08-15,19:23:41
Takoyaki,1,2024-08-15,19:23:41
Hot dog coreano,1,2024-08-15,18:36:21
tonkatsu,1,2024-08-15,18:34:17
Hot dog coreano,1,2024-08-15,18:34:17
Hot dog coreano,1,2024-08-15,18:34:17
Takoyaki,1,2024-08-15,18:34:17
Hot dog coreano,1,2024-08-15,18:32:53
Hot dog coreano,1,2024-08-15,18:32:53
Shio ramen,1,2024-08-15,18:25:57
Shoyu ramen,1,2024-08-15,18:25:57
Hot dog coreano,1,2024-08-15,18:25:57
Hot dog coreano,1,2024-08-15,18:25:57
Hot dog coreano,1,2024-08-15,18:24:13
Takoyaki,1,2024-08-15,18:06:39
Hot dog coreano,1,2024-08-15,18:06:39
Hot dog coreano,1,2024-08-15,18:04:27
Takoyaki,1,2024-08-15,18:01:56
Takoyaki,1,2024-08-15,17:35:05
Takoyaki,1,2024-08-15,17:35:05
Takoyaki,1,2024-08-15,17:29:55
Takoyaki,1,2024-08-15,17:28:05
Shoyu ramen,1,2024-08-15,17:14:34
Shoyu ramen,1,2024-08-15,17:14:35
Hot dog coreano,1,2024-08-15,17:14:35
Miso ramen,1,2024-08-15,17:10:57
Shoyu ramen,1,2024-08-15,17:10:57
Hot dog coreano,1,2024-08-15,17:10:57
Hot dog coreano,1,2024-08-15,17:08:51
Miso ramen,1,2024-08-15,16:44:18
Hot dog coreano,1,2024-08-15,16:44:18
Shio ramen,1,2024-08-15,16:17:36
Shio ramen,1,2024-08-15,16:08:04
Takoyaki,1,2024-08-15,16:08:04
Hot dog coreano,1,2024-08-15,16:08:05
Hot dog coreano,1,2024-08-15,16:04:12
Hot dog coreano,1,2024-08-15,16:00:04
Hot dog coreano,1,2024-08-15,16:00:04
ramen tonkotsu,1,2024-08-15,15:37:53
Miso ramen,1,2024-08-15,15:37:53
Hot dog coreano,1,2024-08-15,15:37:53
Takoyaki,1,2024-08-15,15:19:06
Takoyaki,1,2024-08-15,15:19:06
Takoyaki,1,2024-08-15,15:19:07
Hot dog coreano,1,2024-08-15,15:04:16
Miso ramen,1,2024-08-15,14:51:17
Shoyu ramen,1,2024-08-15,14:49:39
Hot dog coreano,1,2024-08-15,14:49:39
Hot dog coreano,1,2024-08-15,14:49:39
Shoyu ramen,1,2024-08-15,14:46:21
Shoyu ramen,1,2024-08-15,14:46:22
Shoyu ramen,1,2024-08-15,14:46:22
Takoyaki,1,2024-08-15,14:46:22
Takoyaki,1,2024-08-15,14:46:22
Hot dog coreano,1,2024-08-15,14:46:22
Shoyu ramen,1,2024-08-15,14:34:15
Miso ramen,1,2024-08-15,14:22:32
Shoyu ramen,1,2024-08-15,14:20:30
ramen tonkotsu,1,2024-08-15,14:20:30
Miso ramen,1,2024-08-15,14:17:21
Takoyaki,1,2024-08-15,14:17:21
Hot dog coreano,1,2024-08-15,14:17:21
Hot dog coreano,1,2024-08-15,14:17:21
Takoyaki,1,2024-08-15,14:12:10
Hot dog coreano,1,2024-08-15,14:12:10
Miso ramen,1,2024-08-15,13:58:57
Takoyaki,1,2024-08-15,13:57:30
Takoyaki,1,2024-08-15,13:53:04
Takoyaki,1,2024-08-15,13:47:06
Takoyaki,1,2024-08-15,13:42:33
Hot dog coreano,1,2024-08-15,13:35:08
Hot dog coreano,1,2024-08-15,13:21:34
Hot dog coreano,1,2024-08-15,13:21:34
Shio ramen,1,2024-08-15,13:19:54
ramen tonkotsu,1,2024-08-15,13:19:54
Hot dog coreano,1,2024-08-15,13:19:54
Takoyaki,1,2024-08-15,13:19:54
Takoyaki,1,2024-08-15,13:11:16
Takoyaki,1,2024-08-15,12:55:35
Takoyaki,1,2024-08-15,12:41:12
Takoyaki,1,2024-08-15,12:41:12
Takoyaki,1,2024-08-15,12:28:17
Takoyaki,1,2024-08-14,19:47:00
Shoyu ramen,1,2024-08-14,19:43:46
Shoyu ramen,1,2024-08-14,19:01:19
tonkatsu,1,2024-08-14,19:01:19
Takoyaki,1,2024-08-14,18:14:08
Takoyaki,1,2024-08-14,18:08:01
Shoyu ramen,1,2024-08-14,18:08:01
Shio ramen,1,2024-08-14,16:53:23
Takoyaki,1,2024-08-14,16:42:50
Hot dog coreano,1,2024-08-14,15:50:48
Takoyaki,1,2024-08-14,15:49:27
Hot dog coreano,1,2024-08-14,15:29:10
Shio ramen,1,2024-08-14,15:10:00
Shio ramen,1,2024-08-14,15:10:00
Hot dog coreano,1,2024-08-14,15:10:01
Takoyaki,1,2024-08-14,15:10:01
Shoyu ramen,1,2024-08-14,14:58:27
Hot dog coreano,1,2024-08-14,14:13:01
Hot dog coreano,1,2024-08-14,14:11:24
Hot dog coreano,1,2024-08-14,14:09:53
ramen tonkotsu,1,2024-08-14,14:07:33
Takoyaki,1,2024-08-14,14:07:33
onigiri empanizado,1,2024-08-14,14:07:33
Hot dog coreano,1,2024-08-14,14:07:34
Hot dog coreano,1,2024-08-14,14:07:34
Takoyaki,1,2024-08-14,14:04:15
Hot dog coreano,1,2024-08-14,14:04:15
Hot dog coreano,1,2024-08-14,13:37:10
Hot dog coreano,1,2024-08-14,13:37:10
Takoyaki,1,2024-08-14,13:33:39
Hot dog coreano,1,2024-08-14,13:32:21
tonkatsu,1,2024-08-14,13:32:21
Hot dog coreano,1,2024-08-14,13:25:30
Takoyaki,1,2024-08-14,13:16:05
Hot dog coreano,1,2024-08-14,13:16:05
Hot dog coreano,1,2024-08-14,13:16:05
ramen tonkotsu,1,2024-08-14,12:07:05
Hot dog coreano,1,2024-08-14,12:07:05
Hot dog coreano,1,2024-08-13,19:28:55
Hot dog coreano,1,2024-08-13,18:37:13
Hot dog coreano,1,2024-08-13,18:05:23
Takoyaki,1,2024-08-13,17:50:05
Takoyaki,1,2024-08-13,17:50:06
Shio ramen,1,2024-08-13,17:47:11
tonkatsu,1,2024-08-13,17:47:11
Shoyu ramen,1,2024-08-13,17:03:38
Hot dog coreano,1,2024-08-13,17:03:38
onigiri empanizado,1,2024-08-13,17:03:38
onigiri empanizado,1,2024-08-13,17:03:38
Hot dog coreano,1,2024-08-13,16:44:25
Hot dog coreano,1,2024-08-13,16:39:21
Hot dog coreano,1,2024-08-13,15:02:23
Shio ramen,1,2024-08-13,14:58:27
Shio ramen,1,2024-08-13,14:56:58
Hot dog coreano,1,2024-08-13,14:56:58
Takoyaki,1,2024-08-13,14:56:58
Shio ramen,1,2024-08-13,14:23:34
Takoyaki,1,2024-08-13,14:23:35
Hot dog coreano,1,2024-08-13,12:48:53
Miso ramen,1,2024-08-13,12:40:26
Hot dog coreano,1,2024-08-12,19:32:08
Takoyaki,1,2024-08-12,19:27:58
Hot dog coreano,1,2024-08-12,19:27:58
Hot dog coreano,1,2024-08-12,19:16:04
Hot dog coreano,1,2024-08-12,19:16:05
Miso ramen,1,2024-08-12,18:14:43
Hot dog coreano,1,2024-08-12,18:14:43
Hot dog coreano,1,2024-08-12,18:14:43
Miso ramen,1,2024-08-12,17:25:10
Hot dog coreano,1,2024-08-12,17:25:10
Takoyaki,1,2024-08-12,17:25:10
Shio ramen,1,2024-08-12,17:20:26
Hot dog coreano,1,2024-08-12,17:02:40
Hot dog coreano,1,2024-08-12,17:02:40
tonkatsu,1,2024-08-12,17:01:27
Hot dog coreano,1,2024-08-12,15:57:43
Hot dog coreano,1,2024-08-12,15:56:40
Hot dog coreano,1,2024-08-12,15:56:41
Shio ramen,1,2024-08-12,14:35:49
Hot dog coreano,1,2024-08-12,14:31:49
Hot dog coreano,1,2024-08-12,14:26:47
Shio ramen,1,2024-08-12,14:26:47
Hot dog coreano,1,2024-08-12,14:12:28
Shoyu ramen,1,2024-08-12,13:50:22
Miso ramen,1,2024-08-12,13:38:28
Hot dog coreano,1,2024-08-12,13:26:47
Takoyaki,1,2024-08-08,19:16:21
Hot dog coreano,1,2024-08-08,19:16:21
Hot dog coreano,1,2024-08-08,19:16:21
Miso ramen,1,2024-08-08,19:13:58
Miso ramen,1,2024-08-08,19:13:58
Hot dog coreano,1,2024-08-08,19:07:32
Shoyu ramen,1,2024-08-08,19:01:54
Hot dog coreano,1,2024-08-08,18:58:37
Shio ramen,1,2024-08-08,18:57:31
Shio ramen,1,2024-08-08,18:57:31
Takoyaki,1,2024-08-08,18:57:31
Hot dog coreano,1,2024-08-08,18:57:31
Takoyaki,1,2024-08-08,18:51:39
Takoyaki,1,2024-08-08,18:33:44
onigiri empanizado,1,2024-08-08,18:31:55
Miso ramen,1,2024-08-08,18:29:55
Miso ramen,1,2024-08-08,18:29:55
Hot dog coreano,1,2024-08-08,17:40:33
Hot dog coreano,1,2024-08-08,17:40:33
Shio ramen,1,2024-08-08,16:45:24
Shoyu ramen,1,2024-08-08,16:45:24
onigiri empanizado,1,2024-08-08,16:08:38
Takoyaki,1,2024-08-08,15:36:26
ramen tonkotsu,1,2024-08-08,15:14:52
Shio ramen,1,2024-08-08,15:14:52
Takoyaki,1,2024-08-08,15:14:52
Hot dog coreano,1,2024-08-08,14:41:15
Hot dog coreano,1,2024-08-08,14:39:33
Hot dog coreano,1,2024-08-08,13:17:44
onigiri empanizado,1,2024-08-08,13:09:51
onigiri empanizado,1,2024-08-08,13:06:04
Shio ramen,1,2024-08-08,12:22:35
onigiri empanizado,1,2024-08-08,12:22:35
Hot dog coreano,1,2024-08-07,18:42:26
Hot dog coreano,1,2024-08-07,18:42:26
Takoyaki,1,2024-08-07,17:54:54
Shoyu ramen,1,2024-08-07,17:49:58
Takoyaki,1,2024-08-07,17:49:58
Miso ramen,1,2024-08-07,17:28:46
Hot dog coreano,1,2024-08-07,16:29:01
Shoyu ramen,1,2024-08-07,16:29:01
Miso ramen,1,2024-08-07,16:25:07
Miso ramen,1,2024-08-07,16:25:07
Shoyu ramen,1,2024-08-07,16:00:50
Takoyaki,1,2024-08-07,16:00:50
Hot dog coreano,1,2024-08-07,15:31:14
Hot dog coreano,1,2024-08-07,15:31:14
ramen tonkotsu,1,2024-08-07,15:05:10
Hot dog coreano,1,2024-08-07,15:05:10
Hot dog coreano,1,2024-08-07,15:05:10
Hot dog coreano,1,2024-08-07,15:05:10
Takoyaki,1,2024-08-07,15:05:10
Takoyaki,1,2024-08-07,14:11:14
Takoyaki,1,2024-08-07,14:11:14
Miso ramen,1,2024-08-07,14:05:29
Hot dog coreano,1,2024-08-07,14:00:32
tonkatsu,1,2024-08-07,13:59:42
onigiri empanizado,1,2024-08-07,13:46:57
Hot dog coreano,1,2024-08-07,13:16:43
ramen tonkotsu,1,2024-08-07,13:09:28
onigiri empanizado,1,2024-08-07,12:11:58
Hot dog coreano,1,2024-08-06,19:12:28
Hot dog coreano,1,2024-08-06,19:12:28
Takoyaki,1,2024-08-06,18:46:39
Hot dog coreano,1,2024-08-06,18:45:13
Hot dog coreano,1,2024-08-06,18:45:13
Hot dog coreano,1,2024-08-06,18:43:24
Miso ramen,1,2024-08-06,18:41:07
Takoyaki,1,2024-08-06,18:38:56
Hot dog coreano,1,2024-08-06,18:24:59
Hot dog coreano,1,2024-08-06,18:24:59
Takoyaki,1,2024-08-06,18:22:03
Hot dog coreano,1,2024-08-06,18:16:06
Hot dog coreano,1,2024-08-06,18:16:06
Takoyaki,1,2024-08-06,18:14:20
Hot dog coreano,1,2024-08-06,18:09:16
Hot dog coreano,1,2024-08-06,18:09:17
Hot dog coreano,1,2024-08-06,17:46:02
Hot dog coreano,1,2024-08-06,17:46:02
Hot dog coreano,1,2024-08-06,17:20:56
Shio ramen,1,2024-08-06,17:18:43
Shio ramen,1,2024-08-06,17:18:43
tonkatsu,1,2024-08-06,17:18:43
Hot dog coreano,1,2024-08-06,17:09:52
Miso ramen,1,2024-08-06,17:08:20
Takoyaki,1,2024-08-06,17:08:20
Takoyaki,1,2024-08-06,17:08:20
Miso ramen,1,2024-08-06,16:53:03
ramen tonkotsu,1,2024-08-06,16:46:26
Hot dog coreano,1,2024-08-06,16:46:27
Hot dog coreano,1,2024-08-06,16:46:27
Shoyu ramen,1,2024-08-06,14:10:33
Shio ramen,1,2024-08-06,14:10:33
Hot dog coreano,1,2024-08-06,14:10:33
Miso ramen,1,2024-08-06,14:08:08
Hot dog coreano,1,2024-08-06,14:08:08
Takoyaki,1,2024-08-06,13:56:47
Miso ramen,1,2024-08-06,13:42:56
Takoyaki,1,2024-08-06,13:42:56
Shoyu ramen,1,2024-08-06,12:11:31
Shoyu ramen,1,2024-08-06,12:11:31
Hot dog coreano,1,2024-08-05,19:34:47
Takoyaki,1,2024-08-05,19:00:28
Takoyaki,1,2024-08-05,19:00:28
Shoyu ramen,1,2024-08-05,18:45:22
Hot dog coreano,1,2024-08-05,18:40:46
Hot dog coreano,1,2024-08-05,18:26:28
Hot dog coreano,1,2024-08-05,18:26:28
Miso ramen,1,2024-08-05,18:14:22
Hot dog coreano,1,2024-08-05,18:14:22
Hot dog coreano,1,2024-08-05,18:14:22
Takoyaki,1,2024-08-05,17:40:53
Hot dog coreano,1,2024-08-05,17:06:15
Hot dog coreano,1,2024-08-05,17:06:15
ramen tonkotsu,1,2024-08-05,17:02:52
Miso ramen,1,2024-08-05,15:49:49
Hot dog coreano,1,2024-08-05,15:47:03
Hot dog coreano,1,2024-08-05,15:47:03
Hot dog coreano,1,2024-08-05,15:47:03
Takoyaki,1,2024-08-05,15:47:03
Hot dog coreano,1,2024-08-05,15:24:20
Hot dog coreano,1,2024-08-05,14:59:50
Hot dog coreano,1,2024-08-05,14:59:50
Shoyu ramen,1,2024-08-05,14:56:32
Shio ramen,1,2024-08-05,14:45:40
Hot dog coreano,1,2024-08-05,14:45:40
Takoyaki,1,2024-08-05,14:45:40
Hot dog coreano,1,2024-08-05,14:45:40
Hot dog coreano,1,2024-08-05,14:33:43
tonkatsu,1,2024-08-05,14:25:47
Shoyu ramen,1,2024-08-05,13:48:07
tonkatsu,1,2024-08-05,13:48:07
Shoyu ramen,1,2024-08-05,12:36:40
Hot dog coreano,1,2024-08-05,12:33:56
Hot dog coreano,1,2024-08-05,12:33:56
Shio ramen,1,2024-08-05,12:32:28
Miso ramen,1,2024-08-05,12:32:28
ramen tonkotsu,1,2024-08-05,11:06:40
ramen tonkotsu,1,2024-08-05,10:27:02
Hot dog coreano,1,2024-08-01,19:13:57
Hot dog coreano,1,2024-08-01,19:12:55
Hot dog coreano,1,2024-08-01,19:12:55
Takoyaki,1,2024-08-01,19:12:55
Takoyaki,1,2024-08-01,19:10:57
Takoyaki,1,2024-08-01,19:10:57
Takoyaki,1,2024-08-01,19:04:27
Takoyaki,1,2024-08-01,18:42:40
Hot dog coreano,1,2024-08-01,18:42:40
onigiri empanizado,1,2024-08-01,18:35:42
Hot dog coreano,1,2024-08-01,18:36:16
Takoyaki,1,2024-08-01,18:27:15
Takoyaki,1,2024-08-01,18:22:37
Hot dog coreano,1,2024-08-01,18:16:57
Hot dog coreano,1,2024-08-01,18:14:59
Hot dog coreano,1,2024-08-01,18:14:59
Hot dog coreano,1,2024-08-01,18:14:59
Takoyaki,1,2024-08-01,18:14:59
Shoyu ramen,1,2024-08-01,18:09:59
Takoyaki,1,2024-08-01,18:09:59
ramen tonkotsu,1,2024-08-01,18:09:59
Shoyu ramen,1,2024-08-01,18:09:59
Hot dog coreano,1,2024-08-01,18:09:59
Shoyu ramen,1,2024-08-01,17:58:07
Shoyu ramen,1,2024-08-01,17:56:50
Shio ramen,1,2024-08-01,17:53:47
Takoyaki,1,2024-08-01,17:38:43
Takoyaki,1,2024-08-01,17:24:41
ramen tonkotsu,1,2024-08-01,17:19:25
Takoyaki,1,2024-08-01,17:19:25
Takoyaki,1,2024-08-01,17:08:11
Hot dog coreano,1,2024-08-01,16:46:40
Takoyaki,1,2024-08-01,16:37:38
Shoyu ramen,1,2024-08-01,16:30:44
Shoyu ramen,1,2024-08-01,16:30:45
Hot dog coreano,1,2024-08-01,16:30:45
Takoyaki,1,2024-08-01,16:27:17
Hot dog coreano,1,2024-08-01,16:22:53
Hot dog coreano,1,2024-08-01,16:22:53
Hot dog coreano,1,2024-08-01,16:22:53
Miso ramen,1,2024-08-01,16:16:48
Hot dog coreano,1,2024-08-01,16:16:48
Shio ramen,1,2024-08-01,16:15:40
Takoyaki,1,2024-08-01,15:25:39
Hot dog coreano,1,2024-08-01,15:25:39
tonkatsu,1,2024-08-01,15:08:14
ramen tonkotsu,1,2024-08-01,15:03:07
Shoyu ramen,1,2024-08-01,15:03:07
Miso ramen,1,2024-08-01,15:00:51
Shoyu ramen,1,2024-08-01,14:41:45
Shio ramen,1,2024-08-01,14:38:48
Hot dog coreano,1,2024-08-01,14:38:48
Hot dog coreano,1,2024-08-01,14:38:48
onigiri empanizado,1,2024-08-01,14:38:48
Takoyaki,1,2024-08-01,14:24:28
Hot dog coreano,1,2024-08-01,14:16:47
Shoyu ramen,1,2024-08-01,14:11:31
Shio ramen,1,2024-08-01,13:43:20
Shoyu ramen,1,2024-08-01,13:41:45
Takoyaki,1,2024-08-01,13:35:09
onigiri empanizado,1,2024-08-01,13:35:09
Shoyu ramen,1,2024-08-01,13:32:04
Miso ramen,1,2024-08-01,13:32:05
Shoyu ramen,1,2024-08-01,13:30:19
Takoyaki,1,2024-08-01,13:30:19
Miso ramen,1,2024-08-01,13:28:30
Hot dog coreano,1,2024-08-01,13:28:30
Takoyaki,1,2024-08-01,13:28:30
onigiri empanizado,1,2024-08-01,13:20:25
Hot dog coreano,1,2024-08-01,12:25:30
